{
  "data": [
    {
      "id": 11047,
      "created_at": "2023-02-27 14:09:55",
      "iccid": "891000000000009125",
      "lpa": "lpa.airalo.com",
      "imsis": null,
      "matching_id": "TEST",
      "qrcode": "LPA:1$lpa.airalo.com$TEST",
      "qrcode_url": "https://sandbox.airalo.com/qr?expires=1763820595&id=13301&signature=1f0d45226a3857bd0645bf77225b7aee7e250f926763ee1d1a6e4be7fefde71e",
      "direct_apple_installation_url": "https://esimsetup.apple.com/esim_qrcode_provisioning?carddata=LPA:1$wbg.prod.ondemandconnectivity.com$Y7MRQ886FCDJD4RH",
      "voucher_code": null,
      "airalo_code": null,
      "apn_type": "automatic",
      "apn_value": null,
      "is_roaming": true,
      "confirmation_code": null,
      "order": null,
      "brand_settings_name": "our perfect brand"
    },
    {
      "id": 11028,
      "created_at": "2023-02-27 08:30:14",
      "iccid": "891000000000009106",
      "lpa": "lpa.airalo.com",
      "imsis": null,
      "matching_id": "TEST",
      "qrcode": "LPA:1$lpa.airalo.com$TEST",
      "qrcode_url": "https://sandbox.airalo.com/qr?expires=1763800214&id=13282&signature=93bc1599eaaea3175eb32a9f23b3961273e97f04c50ba1b57b68ac99bc6677df",
      "direct_apple_installation_url": "https://esimsetup.apple.com/esim_qrcode_provisioning?carddata=LPA:1$wbg.prod.ondemandconnectivity.com$Y7MRQ886FCDJD4RH",
      "voucher_code": null,
      "airalo_code": null,
      "apn_type": "automatic",
      "apn_value": null,
      "is_roaming": true,
      "confirmation_code": null,
      "order": null,
      "brand_settings_name": "our perfect brand",
      "simable": {
        "id": 9647,
        "created_at": "2023-02-27 08:30:14",
        "code": "20230227-009647",
        "description": null,
        "type": "sim",
        "package_id": "kallur-digital-7days-1gb",
        "quantity": 1,
        "package": "Kallur Digital-1 GB - 7 Days",
        "esim_type": "Prepaid",
        "validity": "7",
        "price": "9.50",
        "data": "1 GB",
        "currency": "USD",
        "manual_installation": "<p><b>eSIM name: </b>Kallur Digital</p><p><b>Coverage:</b> Faroe Islands</p><p><b>To manually activate the eSIM on your eSIM capable device:</b></p><p>1. Settings> Cellular/Mobile> Add Cellular/Mobile Plan.</p><p>2. Manually enter the SM-DP+ Address and activation code.</p><p>3. Confirm the eSIM plan details</p><p>4. Label the eSIM.</p><p><b>To access Data:</b></p><p>1. Enable data roaming.</p><p><b>To top-up:</b></p><p></p><p>Visit airalo.com/my-esims or \"My eSIMs\" tab in your Airaloo app.</p><p><br></p>",
        "qrcode_installation": "<p><b>eSIM name:</b> Kallur Digital</p><p><b>Coverage: </b>Faroe Islands</p><p><b>To activate the eSIM by scanning the QR code on your eSIM capable device you need to print or display this QR code on other device:</b></p><p>1. Settings> Cellular/Mobile> Add Cellular/Mobile Plan.</p><p>2. Scan QR code</p><p>3. Confirm the eSIM plan details</p><p>4. Label the eSIM</p><p><b>To access Data:</b></p><p>1. Enable data roaming</p>",
        "installation_guides": {
          "en": "https://sandbox.airalo.com/installation-guide"
        },
        "status": {
          "name": "Completed",
          "slug": "completed"
        },
        "user": {
          "id": 120,
          "created_at": "2023-02-20 08:41:57",
          "name": "User Name",
          "email": "User.Name+sandbox2@airalo.com",
          "mobile": null,
          "address": null,
          "state": null,
          "city": null,
          "postal_code": null,
          "country_id": null,
          "company": "User Name Airalo 2"
        },
        "sharing": {
          "link": "https://esims.cloud/our-perfect-brand/fds5-48jtd",
          "access_code": "3482"
        }
      }
    },
    {
      "id": 10970,
      "created_at": "2023-02-24 05:34:28",
      "iccid": "891000000000009048",
      "lpa": "lpa.airalo.com",
      "imsis": null,
      "matching_id": "TEST",
      "qrcode": "LPA:1$lpa.airalo.com$TEST",
      "qrcode_url": "https://sandbox.airalo.com/qr?expires=1763530468&id=13224&signature=f8e3e726e95a588f1043979615ca456b316e59eecbe17e7e9cb0eabfc0050359",
      "direct_apple_installation_url": "https://esimsetup.apple.com/esim_qrcode_provisioning?carddata=LPA:1$wbg.prod.ondemandconnectivity.com$Y7MRQ886FCDJD4RH",
      "voucher_code": null,
      "airalo_code": null,
      "apn_type": "automatic",
      "apn_value": null,
      "is_roaming": true,
      "confirmation_code": null,
      "order": null,
      "brand_settings_name": null,
      "simable": {
        "id": 9583,
        "created_at": "2023-02-24 05:34:28",
        "code": "20230224-009583",
        "description": null,
        "type": "sim",
        "package_id": "mariocom-30days-3gb",
        "quantity": 1,
        "package": "Mariocom-3 GB - 30 Days",
        "esim_type": "Prepaid",
        "validity": "30",
        "price": "27.00",
        "data": "3 GB",
        "currency": "USD",
        "manual_installation": "<p><b>eSIM name:</b> Mariocom</p><p><b>Coverage: </b>Liberia</p><p><b>To manually activate the eSIM on your eSIM capable device:</b><br></p><ol><li>Settings > Cellular/Mobile > Add Cellular/Mobile Plan.</li><li>Manually enter the SM-DP+ Address and activation code.</li><li>Confirm eSIM plan details.</li><li>Label the eSIM.</li></ol><p><b>To access Data:</b></p><ol><li>Enable data roaming.<br></li></ol>",
        "qrcode_installation": "<p><b>eSIM name:</b> Mariocom</p><p><b>Coverage: </b>Liberia</p><p><b>To activate the eSIM by scanning the QR code on your eSIM capable device you need to print or display this QR code on other device:</b></p><ol><li>Settings > Cellular/Mobile > Add Cellular/Mobile Plan.</li><li>Scan QR code.</li><li>Confirm eSIM plan details.</li><li>Label the eSIM.</li></ol><p><b>To access Data:</b></p><ol><li>Enable data roaming.<br></li></ol>",
        "installation_guides": {
          "en": "https://sandbox.airalo.com/installation-guide"
        },
        "status": {
          "name": "Completed",
          "slug": "completed"
        },
        "user": {
          "id": 120,
          "created_at": "2023-02-20 08:41:57",
          "name": "User Name",
          "email": "User.Name+sandbox2@airalo.com",
          "mobile": null,
          "address": null,
          "state": null,
          "city": null,
          "postal_code": null,
          "country_id": null,
          "company": "User Name Airalo 2"
        },
        "sharing": {
          "link": "https://esims.cloud/our-perfect-brand/a4g5ht-58sdf1a",
          "access_code": "4812"
        }
      }
    },
    {
      "id": 10954,
      "created_at": "2023-02-22 14:24:01",
      "iccid": "891000000000009032",
      "lpa": "lpa.airalo.com",
      "imsis": null,
      "matching_id": "TEST",
      "qrcode": "LPA:1$lpa.airalo.com$TEST",
      "qrcode_url": "https://sandbox.airalo.com/qr?expires=1763389441&id=13208&signature=d2d5d4b5c048dc2df05e8a7230352007a76366b04c07f6faf6ab77ee8b9b1881",
      "direct_apple_installation_url": "https://esimsetup.apple.com/esim_qrcode_provisioning?carddata=LPA:1$wbg.prod.ondemandconnectivity.com$Y7MRQ886FCDJD4RH",
      "voucher_code": null,
      "airalo_code": null,
      "apn_type": "manual",
      "apn_value": "rh",
      "is_roaming": true,
      "confirmation_code": null,
      "order": null,
      "brand_settings_name": null,
      "simable": {
        "id": 9565,
        "created_at": "2023-02-22 14:24:01",
        "code": "20230222-009565",
        "description": null,
        "type": "sim",
        "package_id": "bonbon-mobile-30days-10gb",
        "quantity": 1,
        "package": "Bonbon Mobile-10 GB - 30 Days",
        "esim_type": "Prepaid",
        "validity": "30",
        "price": "22.50",
        "data": "10 GB",
        "currency": "USD",
        "manual_installation": "<p><b>eSIM name:</b> Bonbon Mobile</p><p><b>Coverage: </b>France</p><p><b>To manually activate the eSIM on your eSIM capable device:</b><br></p><ol><li>Settings > Cellular/Mobile > Add Cellular/Mobile Plan.</li><li>Manually enter the SM-DP+ Address and activation code.</li><li>Confirm eSIM plan details.</li><li>Label the eSIM.</li></ol><p><b>To access Data:</b></p><ol><li>Locate the APN settings in your settings menu.</li><li>Update the APN to \"rh\".</li><li>Enable data roaming.</li></ol>",
        "qrcode_installation": "<p><b>eSIM name:</b> Bonbon Mobile</p><p><b>Coverage: </b>France</p><p><b>To activate the eSIM by scanning the QR code on your eSIM capable device you need to print or display this QR code on other device:</b><br></p><ol><li>Settings > Cellular/Mobile > Add Cellular/Mobile Plan.</li><li>Scan QR code.</li><li>Confirm eSIM plan details.</li><li>Label the eSIM.</li></ol><p><b>To access Data:</b></p><ol><li>Locate the APN settings in your settings menu.</li><li>Update the APN to \"rh\".</li><li>Enable data roaming.</li></ol>",
        "installation_guides": {
          "en": "https://sandbox.airalo.com/installation-guide"
        },
        "status": {
          "name": "Completed",
          "slug": "completed"
        },
        "user": {
          "id": 120,
          "created_at": "2023-02-20 08:41:57",
          "name": "User Name",
          "email": "User.Name+sandbox2@airalo.com",
          "mobile": null,
          "address": null,
          "state": null,
          "city": null,
          "postal_code": null,
          "country_id": null,
          "company": "User Name Airalo 2"
        },
        "sharing": {
          "link": "https://esims.cloud/our-perfect-brand/nf21gs-gfds94f",
          "access_code": "6465"
        }
      }
    },
    {
      "id": 10938,
      "created_at": "2023-02-22 09:49:21",
      "iccid": "891000000000009016",
      "lpa": "lpa.airalo.com",
      "imsis": null,
      "matching_id": "TEST",
      "qrcode": "LPA:1$lpa.airalo.com$TEST",
      "qrcode_url": "https://sandbox.airalo.com/qr?expires=1763372961&id=13192&signature=00df38513e8e7fb9af0e04b970e79894cb71e2a0f29346a77d8ca60de367766f",
      "direct_apple_installation_url": "https://esimsetup.apple.com/esim_qrcode_provisioning?carddata=LPA:1$wbg.prod.ondemandconnectivity.com$Y7MRQ886FCDJD4RH",
      "voucher_code": null,
      "airalo_code": null,
      "apn_type": "automatic",
      "apn_value": null,
      "is_roaming": true,
      "confirmation_code": null,
      "order": null,
      "brand_settings_name": "our perfect brand",
      "simable": {
        "id": 9546,
        "created_at": "2023-02-22 09:49:21",
        "code": "20230222-009546",
        "description": null,
        "type": "sim",
        "package_id": "nigercell-30days-3gb",
        "quantity": 1,
        "package": "Nigercell-3 GB - 30 Days",
        "esim_type": "Prepaid",
        "validity": "30",
        "price": "19.00",
        "data": "3 GB",
        "currency": "USD",
        "manual_installation": "<p><b>eSIM name:</b> Nigercell</p><p><b>Coverage: </b>Nigeria</p><p><b>To manually activate the eSIM on your eSIM capable device:</b><br></p><ol><li>Settings > Cellular/Mobile > Add Cellular/Mobile Plan.</li><li>Manually enter the SM-DP+ Address and activation code.</li><li>Confirm eSIM plan details.</li><li>Label the eSIM.</li></ol><p><b>To access Data:</b></p><ol><li>Enable data roaming.</li></ol>",
        "qrcode_installation": "<p><b>eSIM name:</b> Nigercell</p><p><b>Coverage: </b>Nigeria</p><p><b>To activate the eSIM by scanning the QR code on your eSIM capable device you need to print or display this QR code on other device:</b></p><ol><li>Settings > Cellular/Mobile > Add Cellular/Mobile Plan.</li><li>Scan QR code.</li><li>Confirm eSIM plan details.</li><li>Label the eSIM.</li></ol><p><b>To access Data:</b></p><ol><li>Enable data roaming.</li></ol>",
        "installation_guides": {
          "en": "https://sandbox.airalo.com/installation-guide"
        },
        "status": {
          "name": "Completed",
          "slug": "completed"
        },
        "user": {
          "id": 120,
          "created_at": "2023-02-20 08:41:57",
          "name": "User Name",
          "email": "User.Name+sandbox2@airalo.com",
          "mobile": null,
          "address": null,
          "state": null,
          "city": null,
          "postal_code": null,
          "country_id": null,
          "company": "User Name Airalo 2"
        },
        "sharing": {
          "link": "https://esims.cloud/our-perfect-brand/n82zaa-jnd5s9",
          "access_code": "1537"
        }
      }
    }
  ],
  "links": {
    "first": "https://sandbox-partners-api.airalo.com/v1/sims?include=order%2Corder.status%2Corder.user&limit=5&page=1",
    "last": "https://sandbox-partners-api.airalo.com/v1/sims?include=order%2Corder.status%2Corder.user&limit=5&page=16",
    "prev": null,
    "next": "https://sandbox-partners-api.airalo.com/v1/sims?include=order%2Corder.status%2Corder.user&limit=5&page=2"
  },
  "meta": {
    "message": "success",
    "current_page": 1,
    "from": 1,
    "last_page": 16,
    "path": "https://sandbox-partners-api.airalo.com/v1/sims",
    "per_page": "5",
    "to": 5,
    "total": 77
  }
}